{"failedCount":0,"prefixedPath":"classpath:examples\/users\/users.feature","packageQualifiedName":"examples.users.users","loopIndex":-1,"relativePath":"examples\/users\/users.feature","scenarioResults":[{"sectionIndex":0,"stepResults":[{"result":{"nanos":15915580,"millis":15.91558,"status":"passed"},"step":{"endLine":26,"line":6,"prefix":"*","docString":"function(jsonData){\n   let data = jsonData.jd;\n   let param = jsonData.p;\nconsole.log(data +' data');\nconsole.log(param +' param');\n   for(let k =0;k<data.length;k++){\n     let obj = data[k];\nif(obj.hasOwnProperty(param)){\n if(obj.param.rotorSpeed==2673){\n   console.log('matched');\n   return obj.param;\n }\n  \n}\n   }\n   return jsonData;\n}","index":0,"text":"def processJson ="},"stepLog":"10:55:15.127 karate.env system property was: null \n"},{"result":{"nanos":593233,"millis":0.593233,"status":"passed"},"step":{"line":28,"prefix":"Given","index":1,"text":"url 'https:\/\/jsonmock.hackerrank.com\/api\/iot_devices\/search?status=RUNNING'"}},{"result":{"nanos":1054827593,"millis":1054.827593,"status":"passed"},"step":{"line":29,"prefix":"When","index":2,"text":"method get"},"stepLog":"10:55:15.434 request:\n1 > GET https:\/\/jsonmock.hackerrank.com\/api\/iot_devices\/search?status=RUNNING\n1 > Host: jsonmock.hackerrank.com\n1 > Connection: Keep-Alive\n1 > User-Agent: Apache-HttpClient\/4.5.13 (Java\/14)\n1 > Accept-Encoding: gzip,deflate\n\n\n10:55:16.230 response time in milliseconds: 794\n1 < 200\n1 < Date: Fri, 18 Feb 2022 20:55:16 GMT\n1 < Content-Type: application\/json; charset=utf-8\n1 < Content-Length: 1809\n1 < Connection: keep-alive\n1 < X-Powered-By: Express\n1 < Access-Control-Allow-Origin: *\n1 < ETag: W\/\"711-USy0skmHxuKHl2gdjVKkpw\"\n{\"page\":1,\"per_page\":10,\"total\":35,\"total_pages\":4,\"data\":[{\"id\":4,\"timestamp\":1554240798496,\"status\":\"RUNNING\",\"operatingParams\":{\"rotorSpeed\":2967,\"slack\":37.32,\"rootThreshold\":0},\"asset\":{\"id\":2,\"alias\":\"Main Rotor Shaft\"}},{\"id\":11,\"timestamp\":1565193225660,\"status\":\"RUNNING\",\"operatingParams\":{\"rotorSpeed\":2363,\"slack\":63.07,\"rootThreshold\":0},\"asset\":{\"id\":4,\"alias\":\"Secondary Rotor\"},\"parent\":{\"id\":2,\"alias\":\"Main Rotor Shaft\"}},{\"id\":14,\"timestamp\":1566352838102,\"status\":\"RUNNING\",\"operatingParams\":{\"rotorSpeed\":1536,\"slack\":86.52,\"rootThreshold\":0},\"asset\":{\"id\":2,\"alias\":\"Main Rotor Shaft\"}},{\"id\":15,\"timestamp\":1565008649102,\"status\":\"RUNNING\",\"operatingParams\":{\"rotorSpeed\":4114,\"slack\":45.38,\"rootThreshold\":0},\"asset\":{\"id\":1,\"alias\":\"Axle Motor\"},\"parent\":null},{\"id\":19,\"timestamp\":1546917341408,\"status\":\"RUNNING\",\"operatingParams\":{\"rotorSpeed\":2673,\"slack\":16.3,\"rootThreshold\":0},\"asset\":{\"id\":2,\"alias\":\"Main Rotor Shaft\"}},{\"id\":23,\"timestamp\":1554478379196,\"status\":\"RUNNING\",\"operatingParams\":{\"rotorSpeed\":2319,\"slack\":91.81,\"rootThreshold\":0},\"asset\":{\"id\":1,\"alias\":\"Axle Motor\"},\"parent\":null},{\"id\":27,\"timestamp\":1565715044200,\"status\":\"RUNNING\",\"operatingParams\":{\"rotorSpeed\":2257,\"slack\":65.91,\"rootThreshold\":0},\"asset\":{\"id\":7,\"alias\":\"Counter Blades\"}},{\"id\":28,\"timestamp\":1563744781223,\"status\":\"RUNNING\",\"operatingParams\":{\"rotorSpeed\":4056,\"slack\":40.1,\"rootThreshold\":0},\"asset\":{\"id\":6,\"alias\":\"Penstock Guage\"}},{\"id\":29,\"timestamp\":1551346719679,\"status\":\"RUNNING\",\"operatingParams\":{\"rotorSpeed\":2679,\"slack\":58.29,\"rootThreshold\":0},\"asset\":{\"id\":7,\"alias\":\"Counter Blades\"}},{\"id\":40,\"timestamp\":1548040103302,\"status\":\"RUNNING\",\"operatingParams\":{\"rotorSpeed\":1807,\"slack\":34.12,\"rootThreshold\":0},\"asset\":{\"id\":1,\"alias\":\"Axle Motor\"},\"parent\":null}]}\n"},{"result":{"nanos":32123,"millis":0.032123,"status":"passed"},"step":{"line":30,"prefix":"Then","index":3,"text":"status 200"}},{"result":{"nanos":1683793,"millis":1.683793,"status":"passed"},"step":{"line":31,"prefix":"And","index":4,"text":"def k = response.data"}},{"result":{"nanos":637827,"millis":0.637827,"status":"passed"},"step":{"comments":["# And print k","#   * def process = call read('.\/javascript.feature')"],"line":36,"prefix":"*","index":5,"text":"def key = 'operatingParams'"}},{"result":{"nanos":31619870,"millis":31.61987,"status":"passed"},"step":{"line":37,"prefix":"*","index":6,"text":"json kari = call processJson {jd:k,p:key}"}},{"result":{"nanos":2147072,"millis":2.147072,"status":"passed"},"step":{"line":38,"prefix":"*","index":7,"text":"print kari.rotorSpeed"},"stepLog":"10:55:16.272 [print] null \n"}],"executorName":"pool-1-thread-2","line":4,"name":"get data","description":"","durationMillis":1107.457091,"startTime":1645217714978,"failed":false,"refId":"[1:4]","endTime":1645217716273,"exampleIndex":-1}],"callDepth":0,"name":"sample karate test script","description":"","resultDate":"2022-02-18 10:55:16 AM","durationMillis":1107.457091,"passedCount":1}