{"failedCount":1,"prefixedPath":"classpath:examples\/users\/users.feature","packageQualifiedName":"examples.users.users","loopIndex":-1,"relativePath":"examples\/users\/users.feature","scenarioResults":[{"sectionIndex":0,"stepResults":[{"result":{"nanos":18320282,"millis":18.320282,"status":"passed"},"step":{"endLine":16,"line":6,"prefix":"*","docString":"function(json,key){\nfor (var key in json) {\nif (json.hasOwnProperty(key)) {\nprocessedJson=json[key];\n}\n}\n   return processedJson;\n}","index":0,"text":"def processJson ="},"stepLog":"09:24:34.348 karate.env system property was: null \n"},{"result":{"nanos":1157288,"millis":1.157288,"status":"passed"},"step":{"line":18,"prefix":"Given","index":1,"text":"url 'https:\/\/jsonmock.hackerrank.com\/api\/iot_devices\/search?status=RUNNING'"}},{"result":{"nanos":1812715207,"millis":1812.715207,"status":"passed"},"step":{"line":19,"prefix":"When","index":2,"text":"method get"},"stepLog":"09:24:34.702 request:\n1 > GET https:\/\/jsonmock.hackerrank.com\/api\/iot_devices\/search?status=RUNNING\n1 > Host: jsonmock.hackerrank.com\n1 > Connection: Keep-Alive\n1 > User-Agent: Apache-HttpClient\/4.5.13 (Java\/14)\n1 > Accept-Encoding: gzip,deflate\n\n\n09:24:36.207 response time in milliseconds: 1503\n1 < 200\n1 < Date: Fri, 18 Feb 2022 19:24:36 GMT\n1 < Content-Type: application\/json; charset=utf-8\n1 < Content-Length: 1809\n1 < Connection: keep-alive\n1 < X-Powered-By: Express\n1 < Access-Control-Allow-Origin: *\n1 < ETag: W\/\"711-USy0skmHxuKHl2gdjVKkpw\"\n{\"page\":1,\"per_page\":10,\"total\":35,\"total_pages\":4,\"data\":[{\"id\":4,\"timestamp\":1554240798496,\"status\":\"RUNNING\",\"operatingParams\":{\"rotorSpeed\":2967,\"slack\":37.32,\"rootThreshold\":0},\"asset\":{\"id\":2,\"alias\":\"Main Rotor Shaft\"}},{\"id\":11,\"timestamp\":1565193225660,\"status\":\"RUNNING\",\"operatingParams\":{\"rotorSpeed\":2363,\"slack\":63.07,\"rootThreshold\":0},\"asset\":{\"id\":4,\"alias\":\"Secondary Rotor\"},\"parent\":{\"id\":2,\"alias\":\"Main Rotor Shaft\"}},{\"id\":14,\"timestamp\":1566352838102,\"status\":\"RUNNING\",\"operatingParams\":{\"rotorSpeed\":1536,\"slack\":86.52,\"rootThreshold\":0},\"asset\":{\"id\":2,\"alias\":\"Main Rotor Shaft\"}},{\"id\":15,\"timestamp\":1565008649102,\"status\":\"RUNNING\",\"operatingParams\":{\"rotorSpeed\":4114,\"slack\":45.38,\"rootThreshold\":0},\"asset\":{\"id\":1,\"alias\":\"Axle Motor\"},\"parent\":null},{\"id\":19,\"timestamp\":1546917341408,\"status\":\"RUNNING\",\"operatingParams\":{\"rotorSpeed\":2673,\"slack\":16.3,\"rootThreshold\":0},\"asset\":{\"id\":2,\"alias\":\"Main Rotor Shaft\"}},{\"id\":23,\"timestamp\":1554478379196,\"status\":\"RUNNING\",\"operatingParams\":{\"rotorSpeed\":2319,\"slack\":91.81,\"rootThreshold\":0},\"asset\":{\"id\":1,\"alias\":\"Axle Motor\"},\"parent\":null},{\"id\":27,\"timestamp\":1565715044200,\"status\":\"RUNNING\",\"operatingParams\":{\"rotorSpeed\":2257,\"slack\":65.91,\"rootThreshold\":0},\"asset\":{\"id\":7,\"alias\":\"Counter Blades\"}},{\"id\":28,\"timestamp\":1563744781223,\"status\":\"RUNNING\",\"operatingParams\":{\"rotorSpeed\":4056,\"slack\":40.1,\"rootThreshold\":0},\"asset\":{\"id\":6,\"alias\":\"Penstock Guage\"}},{\"id\":29,\"timestamp\":1551346719679,\"status\":\"RUNNING\",\"operatingParams\":{\"rotorSpeed\":2679,\"slack\":58.29,\"rootThreshold\":0},\"asset\":{\"id\":7,\"alias\":\"Counter Blades\"}},{\"id\":40,\"timestamp\":1548040103302,\"status\":\"RUNNING\",\"operatingParams\":{\"rotorSpeed\":1807,\"slack\":34.12,\"rootThreshold\":0},\"asset\":{\"id\":1,\"alias\":\"Axle Motor\"},\"parent\":null}]}\n"},{"result":{"nanos":31735,"millis":0.031735,"status":"passed"},"step":{"line":20,"prefix":"Then","index":3,"text":"status 200"}},{"result":{"nanos":4509529,"millis":4.509529,"status":"passed"},"step":{"line":21,"prefix":"And","index":4,"text":"print response.data"},"stepLog":"09:24:36.218 [print] [\n  {\n    \"id\": 4,\n    \"timestamp\": 1554240798496,\n    \"status\": \"RUNNING\",\n    \"operatingParams\": {\n      \"rotorSpeed\": 2967,\n      \"slack\": 37.32,\n      \"rootThreshold\": 0\n    },\n    \"asset\": {\n      \"id\": 2,\n      \"alias\": \"Main Rotor Shaft\"\n    }\n  },\n  {\n    \"id\": 11,\n    \"timestamp\": 1565193225660,\n    \"status\": \"RUNNING\",\n    \"operatingParams\": {\n      \"rotorSpeed\": 2363,\n      \"slack\": 63.07,\n      \"rootThreshold\": 0\n    },\n    \"asset\": {\n      \"id\": 4,\n      \"alias\": \"Secondary Rotor\"\n    },\n    \"parent\": {\n      \"id\": 2,\n      \"alias\": \"Main Rotor Shaft\"\n    }\n  },\n  {\n    \"id\": 14,\n    \"timestamp\": 1566352838102,\n    \"status\": \"RUNNING\",\n    \"operatingParams\": {\n      \"rotorSpeed\": 1536,\n      \"slack\": 86.52,\n      \"rootThreshold\": 0\n    },\n    \"asset\": {\n      \"id\": 2,\n      \"alias\": \"Main Rotor Shaft\"\n    }\n  },\n  {\n    \"id\": 15,\n    \"timestamp\": 1565008649102,\n    \"status\": \"RUNNING\",\n    \"operatingParams\": {\n      \"rotorSpeed\": 4114,\n      \"slack\": 45.38,\n      \"rootThreshold\": 0\n    },\n    \"asset\": {\n      \"id\": 1,\n      \"alias\": \"Axle Motor\"\n    },\n    \"parent\": null\n  },\n  {\n    \"id\": 19,\n    \"timestamp\": 1546917341408,\n    \"status\": \"RUNNING\",\n    \"operatingParams\": {\n      \"rotorSpeed\": 2673,\n      \"slack\": 16.3,\n      \"rootThreshold\": 0\n    },\n    \"asset\": {\n      \"id\": 2,\n      \"alias\": \"Main Rotor Shaft\"\n    }\n  },\n  {\n    \"id\": 23,\n    \"timestamp\": 1554478379196,\n    \"status\": \"RUNNING\",\n    \"operatingParams\": {\n      \"rotorSpeed\": 2319,\n      \"slack\": 91.81,\n      \"rootThreshold\": 0\n    },\n    \"asset\": {\n      \"id\": 1,\n      \"alias\": \"Axle Motor\"\n    },\n    \"parent\": null\n  },\n  {\n    \"id\": 27,\n    \"timestamp\": 1565715044200,\n    \"status\": \"RUNNING\",\n    \"operatingParams\": {\n      \"rotorSpeed\": 2257,\n      \"slack\": 65.91,\n      \"rootThreshold\": 0\n    },\n    \"asset\": {\n      \"id\": 7,\n      \"alias\": \"Counter Blades\"\n    }\n  },\n  {\n    \"id\": 28,\n    \"timestamp\": 1563744781223,\n    \"status\": \"RUNNING\",\n    \"operatingParams\": {\n      \"rotorSpeed\": 4056,\n      \"slack\": 40.1,\n      \"rootThreshold\": 0\n    },\n    \"asset\": {\n      \"id\": 6,\n      \"alias\": \"Penstock Guage\"\n    }\n  },\n  {\n    \"id\": 29,\n    \"timestamp\": 1551346719679,\n    \"status\": \"RUNNING\",\n    \"operatingParams\": {\n      \"rotorSpeed\": 2679,\n      \"slack\": 58.29,\n      \"rootThreshold\": 0\n    },\n    \"asset\": {\n      \"id\": 7,\n      \"alias\": \"Counter Blades\"\n    }\n  },\n  {\n    \"id\": 40,\n    \"timestamp\": 1548040103302,\n    \"status\": \"RUNNING\",\n    \"operatingParams\": {\n      \"rotorSpeed\": 1807,\n      \"slack\": 34.12,\n      \"rootThreshold\": 0\n    },\n    \"asset\": {\n      \"id\": 1,\n      \"alias\": \"Axle Motor\"\n    },\n    \"parent\": null\n  }\n]\n \n"},{"result":{"nanos":0,"errorMessage":"no step-definition method match found for: json data=processJson(response.data,\"operatingParams\")\nclasspath:examples\/users\/users.feature:25","millis":0.0,"status":"failed"},"step":{"comments":["#   * def process = call read('.\/javascript.feature')"],"line":25,"prefix":"*","index":5,"text":"json data=processJson(response.data,\"operatingParams\")"},"stepLog":"09:24:36.221 classpath:examples\/users\/users.feature:25\n* json data=processJson(response.data,\"operatingParams\")\nno step-definition method match found for: json data=processJson(response.data,\"operatingParams\")\nclasspath:examples\/users\/users.feature:25\n"},{"result":{"nanos":0,"millis":0.0,"status":"skipped"},"step":{"line":26,"prefix":"*","index":6,"text":"print data"}}],"line":4,"description":"","durationMillis":1836.734041,"failed":true,"error":"no step-definition method match found for: json data=processJson(response.data,\"operatingParams\")\nclasspath:examples\/users\/users.feature:25","executorName":"pool-1-thread-2","name":"get data","startTime":1645212274167,"refId":"[1:4]","endTime":1645212276221,"exampleIndex":-1}],"callDepth":0,"name":"sample karate test script","description":"","resultDate":"2022-02-18 09:24:36 AM","durationMillis":1836.734041,"passedCount":0}