{"failedCount":0,"prefixedPath":"classpath:examples\/users\/users.feature","packageQualifiedName":"examples.users.users","loopIndex":-1,"relativePath":"examples\/users\/users.feature","scenarioResults":[{"sectionIndex":0,"stepResults":[{"result":{"nanos":917133,"millis":0.917133,"status":"passed"},"step":{"line":5,"prefix":"Given","index":0,"text":"url 'https:\/\/jsonmock.hackerrank.com\/api\/iot_devices\/search?status=RUNNING&page=2'"},"stepLog":"11:52:53.297 karate.env system property was: null \n"},{"result":{"nanos":1575018439,"millis":1575.018439,"status":"passed"},"step":{"line":6,"prefix":"When","index":1,"text":"method get"},"stepLog":"11:52:53.628 request:\n1 > GET https:\/\/jsonmock.hackerrank.com\/api\/iot_devices\/search?status=RUNNING&page=2\n1 > Host: jsonmock.hackerrank.com\n1 > Connection: Keep-Alive\n1 > User-Agent: Apache-HttpClient\/4.5.13 (Java\/14)\n1 > Accept-Encoding: gzip,deflate\n\n\n11:52:54.861 response time in milliseconds: 1229\n1 < 200\n1 < Date: Thu, 17 Feb 2022 21:52:54 GMT\n1 < Content-Type: application\/json; charset=utf-8\n1 < Content-Length: 1892\n1 < Connection: keep-alive\n1 < X-Powered-By: Express\n1 < Access-Control-Allow-Origin: *\n1 < ETag: W\/\"764-E68DjJNRHc1MOqw6rkxQyw\"\n{\"page\":2,\"per_page\":10,\"total\":35,\"total_pages\":4,\"data\":[{\"id\":42,\"timestamp\":1565692775077,\"status\":\"RUNNING\",\"operatingParams\":{\"rotorSpeed\":3036,\"slack\":78.6,\"rootThreshold\":0},\"asset\":{\"id\":0,\"alias\":\"Primary Rotor\"},\"parent\":{\"id\":2,\"alias\":\"Main Rotor Shaft\"}},{\"id\":46,\"timestamp\":1552562195715,\"status\":\"RUNNING\",\"operatingParams\":{\"rotorSpeed\":2281,\"slack\":55.14,\"rootThreshold\":0},\"asset\":{\"id\":7,\"alias\":\"Counter Blades\"}},{\"id\":47,\"timestamp\":1547224303019,\"status\":\"RUNNING\",\"operatingParams\":{\"rotorSpeed\":2044,\"slack\":53.54,\"rootThreshold\":0},\"asset\":{\"id\":7,\"alias\":\"Counter Blades\"}},{\"id\":49,\"timestamp\":1560064864330,\"status\":\"RUNNING\",\"operatingParams\":{\"rotorSpeed\":4721,\"slack\":90.46,\"rootThreshold\":0},\"asset\":{\"id\":3,\"alias\":\"Secondary Rotor Shaft\"},\"parent\":{\"id\":7,\"alias\":\"Counter Blades\"}},{\"id\":51,\"timestamp\":1554411734690,\"status\":\"RUNNING\",\"operatingParams\":{\"rotorSpeed\":2957,\"slack\":87.8,\"rootThreshold\":0},\"asset\":{\"id\":4,\"alias\":\"Secondary Rotor\"},\"parent\":{\"id\":2,\"alias\":\"Main Rotor Shaft\"}},{\"id\":54,\"timestamp\":1553587216516,\"status\":\"RUNNING\",\"operatingParams\":{\"rotorSpeed\":3226,\"slack\":84.66,\"rootThreshold\":0},\"asset\":{\"id\":6,\"alias\":\"Penstock Guage\"}},{\"id\":57,\"timestamp\":1555874682656,\"status\":\"RUNNING\",\"operatingParams\":{\"rotorSpeed\":1585,\"slack\":53.07,\"rootThreshold\":0},\"asset\":{\"id\":1,\"alias\":\"Axle Motor\"},\"parent\":null},{\"id\":59,\"timestamp\":1553671973838,\"status\":\"RUNNING\",\"operatingParams\":{\"rotorSpeed\":4238,\"slack\":33.08,\"rootThreshold\":0},\"asset\":{\"id\":1,\"alias\":\"Axle Motor\"},\"parent\":null},{\"id\":60,\"timestamp\":1566828588900,\"status\":\"RUNNING\",\"operatingParams\":{\"rotorSpeed\":4686,\"slack\":19.24,\"rootThreshold\":0},\"asset\":{\"id\":2,\"alias\":\"Main Rotor Shaft\"}},{\"id\":62,\"timestamp\":1563263018996,\"status\":\"RUNNING\",\"operatingParams\":{\"rotorSpeed\":4005,\"slack\":33.92,\"rootThreshold\":0},\"asset\":{\"id\":2,\"alias\":\"Main Rotor Shaft\"}}]}\n"},{"result":{"nanos":27716,"millis":0.027716,"status":"passed"},"step":{"line":7,"prefix":"Then","index":2,"text":"status 200"}},{"result":{"nanos":12196328,"millis":12.196328,"status":"passed"},"step":{"line":8,"prefix":"And","index":3,"text":"print response"},"stepLog":"11:52:54.916 [print] {\n  \"page\": 2,\n  \"per_page\": 10,\n  \"total\": 35,\n  \"total_pages\": 4,\n  \"data\": [\n    {\n      \"id\": 42,\n      \"timestamp\": 1565692775077,\n      \"status\": \"RUNNING\",\n      \"operatingParams\": {\n        \"rotorSpeed\": 3036,\n        \"slack\": 78.6,\n        \"rootThreshold\": 0\n      },\n      \"asset\": {\n        \"id\": 0,\n        \"alias\": \"Primary Rotor\"\n      },\n      \"parent\": {\n        \"id\": 2,\n        \"alias\": \"Main Rotor Shaft\"\n      }\n    },\n    {\n      \"id\": 46,\n      \"timestamp\": 1552562195715,\n      \"status\": \"RUNNING\",\n      \"operatingParams\": {\n        \"rotorSpeed\": 2281,\n        \"slack\": 55.14,\n        \"rootThreshold\": 0\n      },\n      \"asset\": {\n        \"id\": 7,\n        \"alias\": \"Counter Blades\"\n      }\n    },\n    {\n      \"id\": 47,\n      \"timestamp\": 1547224303019,\n      \"status\": \"RUNNING\",\n      \"operatingParams\": {\n        \"rotorSpeed\": 2044,\n        \"slack\": 53.54,\n        \"rootThreshold\": 0\n      },\n      \"asset\": {\n        \"id\": 7,\n        \"alias\": \"Counter Blades\"\n      }\n    },\n    {\n      \"id\": 49,\n      \"timestamp\": 1560064864330,\n      \"status\": \"RUNNING\",\n      \"operatingParams\": {\n        \"rotorSpeed\": 4721,\n        \"slack\": 90.46,\n        \"rootThreshold\": 0\n      },\n      \"asset\": {\n        \"id\": 3,\n        \"alias\": \"Secondary Rotor Shaft\"\n      },\n      \"parent\": {\n        \"id\": 7,\n        \"alias\": \"Counter Blades\"\n      }\n    },\n    {\n      \"id\": 51,\n      \"timestamp\": 1554411734690,\n      \"status\": \"RUNNING\",\n      \"operatingParams\": {\n        \"rotorSpeed\": 2957,\n        \"slack\": 87.8,\n        \"rootThreshold\": 0\n      },\n      \"asset\": {\n        \"id\": 4,\n        \"alias\": \"Secondary Rotor\"\n      },\n      \"parent\": {\n        \"id\": 2,\n        \"alias\": \"Main Rotor Shaft\"\n      }\n    },\n    {\n      \"id\": 54,\n      \"timestamp\": 1553587216516,\n      \"status\": \"RUNNING\",\n      \"operatingParams\": {\n        \"rotorSpeed\": 3226,\n        \"slack\": 84.66,\n        \"rootThreshold\": 0\n      },\n      \"asset\": {\n        \"id\": 6,\n        \"alias\": \"Penstock Guage\"\n      }\n    },\n    {\n      \"id\": 57,\n      \"timestamp\": 1555874682656,\n      \"status\": \"RUNNING\",\n      \"operatingParams\": {\n        \"rotorSpeed\": 1585,\n        \"slack\": 53.07,\n        \"rootThreshold\": 0\n      },\n      \"asset\": {\n        \"id\": 1,\n        \"alias\": \"Axle Motor\"\n      },\n      \"parent\": null\n    },\n    {\n      \"id\": 59,\n      \"timestamp\": 1553671973838,\n      \"status\": \"RUNNING\",\n      \"operatingParams\": {\n        \"rotorSpeed\": 4238,\n        \"slack\": 33.08,\n        \"rootThreshold\": 0\n      },\n      \"asset\": {\n        \"id\": 1,\n        \"alias\": \"Axle Motor\"\n      },\n      \"parent\": null\n    },\n    {\n      \"id\": 60,\n      \"timestamp\": 1566828588900,\n      \"status\": \"RUNNING\",\n      \"operatingParams\": {\n        \"rotorSpeed\": 4686,\n        \"slack\": 19.24,\n        \"rootThreshold\": 0\n      },\n      \"asset\": {\n        \"id\": 2,\n        \"alias\": \"Main Rotor Shaft\"\n      }\n    },\n    {\n      \"id\": 62,\n      \"timestamp\": 1563263018996,\n      \"status\": \"RUNNING\",\n      \"operatingParams\": {\n        \"rotorSpeed\": 4005,\n        \"slack\": 33.92,\n        \"rootThreshold\": 0\n      },\n      \"asset\": {\n        \"id\": 2,\n        \"alias\": \"Main Rotor Shaft\"\n      }\n    }\n  ]\n}\n \n"}],"executorName":"pool-1-thread-1","line":4,"name":"get data","description":"","durationMillis":1588.159616,"startTime":1645134773129,"failed":false,"refId":"[1:4]","endTime":1645134774917,"exampleIndex":-1}],"callDepth":0,"name":"sample karate test script","description":"","resultDate":"2022-02-17 11:52:54 AM","durationMillis":1588.159616,"passedCount":1}