{"failedCount":1,"prefixedPath":"classpath:examples\/users\/users.feature","packageQualifiedName":"examples.users.users","loopIndex":-1,"relativePath":"examples\/users\/users.feature","scenarioResults":[{"sectionIndex":0,"stepResults":[{"result":{"nanos":2694401,"millis":2.694401,"status":"passed"},"step":{"endLine":12,"line":6,"prefix":"*","docString":"function(json, k){\n   console.log('Kaari Javascript');\nconsole.log(json.page);\n}","index":0,"text":"def processJson ="},"stepLog":"10:22:34.855 karate.env system property was: null \n"},{"result":{"nanos":889916,"millis":0.889916,"status":"passed"},"step":{"line":14,"prefix":"Given","index":1,"text":"url 'https:\/\/jsonmock.hackerrank.com\/api\/iot_devices\/search?status=RUNNING'"}},{"result":{"nanos":1280523224,"millis":1280.523224,"status":"passed"},"step":{"line":15,"prefix":"When","index":2,"text":"method get"},"stepLog":"10:22:35.165 request:\n1 > GET https:\/\/jsonmock.hackerrank.com\/api\/iot_devices\/search?status=RUNNING\n1 > Host: jsonmock.hackerrank.com\n1 > Connection: Keep-Alive\n1 > User-Agent: Apache-HttpClient\/4.5.13 (Java\/14)\n1 > Accept-Encoding: gzip,deflate\n\n\n10:22:36.172 response time in milliseconds: 1005\n1 < 200\n1 < Date: Fri, 18 Feb 2022 20:22:36 GMT\n1 < Content-Type: application\/json; charset=utf-8\n1 < Content-Length: 1809\n1 < Connection: keep-alive\n1 < X-Powered-By: Express\n1 < Access-Control-Allow-Origin: *\n1 < ETag: W\/\"711-USy0skmHxuKHl2gdjVKkpw\"\n{\"page\":1,\"per_page\":10,\"total\":35,\"total_pages\":4,\"data\":[{\"id\":4,\"timestamp\":1554240798496,\"status\":\"RUNNING\",\"operatingParams\":{\"rotorSpeed\":2967,\"slack\":37.32,\"rootThreshold\":0},\"asset\":{\"id\":2,\"alias\":\"Main Rotor Shaft\"}},{\"id\":11,\"timestamp\":1565193225660,\"status\":\"RUNNING\",\"operatingParams\":{\"rotorSpeed\":2363,\"slack\":63.07,\"rootThreshold\":0},\"asset\":{\"id\":4,\"alias\":\"Secondary Rotor\"},\"parent\":{\"id\":2,\"alias\":\"Main Rotor Shaft\"}},{\"id\":14,\"timestamp\":1566352838102,\"status\":\"RUNNING\",\"operatingParams\":{\"rotorSpeed\":1536,\"slack\":86.52,\"rootThreshold\":0},\"asset\":{\"id\":2,\"alias\":\"Main Rotor Shaft\"}},{\"id\":15,\"timestamp\":1565008649102,\"status\":\"RUNNING\",\"operatingParams\":{\"rotorSpeed\":4114,\"slack\":45.38,\"rootThreshold\":0},\"asset\":{\"id\":1,\"alias\":\"Axle Motor\"},\"parent\":null},{\"id\":19,\"timestamp\":1546917341408,\"status\":\"RUNNING\",\"operatingParams\":{\"rotorSpeed\":2673,\"slack\":16.3,\"rootThreshold\":0},\"asset\":{\"id\":2,\"alias\":\"Main Rotor Shaft\"}},{\"id\":23,\"timestamp\":1554478379196,\"status\":\"RUNNING\",\"operatingParams\":{\"rotorSpeed\":2319,\"slack\":91.81,\"rootThreshold\":0},\"asset\":{\"id\":1,\"alias\":\"Axle Motor\"},\"parent\":null},{\"id\":27,\"timestamp\":1565715044200,\"status\":\"RUNNING\",\"operatingParams\":{\"rotorSpeed\":2257,\"slack\":65.91,\"rootThreshold\":0},\"asset\":{\"id\":7,\"alias\":\"Counter Blades\"}},{\"id\":28,\"timestamp\":1563744781223,\"status\":\"RUNNING\",\"operatingParams\":{\"rotorSpeed\":4056,\"slack\":40.1,\"rootThreshold\":0},\"asset\":{\"id\":6,\"alias\":\"Penstock Guage\"}},{\"id\":29,\"timestamp\":1551346719679,\"status\":\"RUNNING\",\"operatingParams\":{\"rotorSpeed\":2679,\"slack\":58.29,\"rootThreshold\":0},\"asset\":{\"id\":7,\"alias\":\"Counter Blades\"}},{\"id\":40,\"timestamp\":1548040103302,\"status\":\"RUNNING\",\"operatingParams\":{\"rotorSpeed\":1807,\"slack\":34.12,\"rootThreshold\":0},\"asset\":{\"id\":1,\"alias\":\"Axle Motor\"},\"parent\":null}]}\n"},{"result":{"nanos":33623,"millis":0.033623,"status":"passed"},"step":{"line":16,"prefix":"Then","index":3,"text":"status 200"}},{"result":{"nanos":2492840,"millis":2.49284,"status":"passed"},"step":{"line":17,"prefix":"And","index":4,"text":"def k = response.page"}},{"result":{"nanos":2278129,"millis":2.278129,"status":"passed"},"step":{"line":18,"prefix":"And","index":5,"text":"print k"},"stepLog":"10:22:36.183 [print] 1 \n"},{"result":{"nanos":976763,"millis":0.976763,"status":"passed"},"step":{"comments":["#   * def process = call read('.\/javascript.feature')"],"line":22,"prefix":"*","index":6,"text":"def key = 'operatingParams'"}},{"result":{"nanos":20790224,"errorMessage":"js failed:\n>>>>\n01: r, key\n<<<<\norg.graalvm.polyglot.PolyglotException: ReferenceError: \"r\" is not defined\n- <js>.:program(Unnamed:1)\n\nclasspath:examples\/users\/users.feature:23","millis":20.790224,"status":"failed"},"step":{"line":23,"prefix":"*","index":7,"text":"json kari = call processJson r, key"},"stepLog":"10:22:36.207 classpath:examples\/users\/users.feature:23\n* json kari = call processJson r, key\njs failed:\n>>>>\n01: r, key\n<<<<\norg.graalvm.polyglot.PolyglotException: ReferenceError: \"r\" is not defined\n- <js>.:program(Unnamed:1)\n\nclasspath:examples\/users\/users.feature:23\n"}],"line":4,"description":"","durationMillis":1310.67912,"failed":true,"error":"js failed:\n>>>>\n01: r, key\n<<<<\norg.graalvm.polyglot.PolyglotException: ReferenceError: \"r\" is not defined\n- <js>.:program(Unnamed:1)\n\nclasspath:examples\/users\/users.feature:23","executorName":"pool-1-thread-2","name":"get data","startTime":1645215754708,"refId":"[1:4]","endTime":1645215756207,"exampleIndex":-1}],"callDepth":0,"name":"sample karate test script","description":"","resultDate":"2022-02-18 10:22:36 AM","durationMillis":1310.67912,"passedCount":0}