{"failedCount":1,"prefixedPath":"classpath:examples\/users\/users.feature","packageQualifiedName":"examples.users.users","loopIndex":-1,"relativePath":"examples\/users\/users.feature","scenarioResults":[{"sectionIndex":0,"stepResults":[{"result":{"nanos":17046535,"millis":17.046535,"status":"passed"},"step":{"endLine":26,"line":6,"prefix":"*","docString":"function(jsonData){\n   let data = jsonData.jd;\n   let param = jsonData.p;\nconsole.log(data +' data');\nconsole.log(param +' param');\n   for(let k =0;k<data.length;k++){\n     let obj = data[k];\nif(obj.hasOwnProperty(param)){\n if(obj.param.rotorSpeed==2673){\n   console.log('matched');\n   return obj.param;\n }\n  \n}\n   }\n   return jsonData;\n}","index":0,"text":"def processJson ="},"stepLog":"10:57:01.593 karate.env system property was: null \n"},{"result":{"nanos":590432,"millis":0.590432,"status":"passed"},"step":{"line":28,"prefix":"Given","index":1,"text":"url 'https:\/\/jsonmock.hackerrank.com\/api\/iot_devices\/search?status=RUNNING'"}},{"result":{"nanos":1337165850,"millis":1337.16585,"status":"passed"},"step":{"line":29,"prefix":"When","index":2,"text":"method get"},"stepLog":"10:57:01.891 request:\n1 > GET https:\/\/jsonmock.hackerrank.com\/api\/iot_devices\/search?status=RUNNING\n1 > Host: jsonmock.hackerrank.com\n1 > Connection: Keep-Alive\n1 > User-Agent: Apache-HttpClient\/4.5.13 (Java\/14)\n1 > Accept-Encoding: gzip,deflate\n\n\n10:57:02.970 response time in milliseconds: 1075\n1 < 200\n1 < Date: Fri, 18 Feb 2022 20:57:03 GMT\n1 < Content-Type: application\/json; charset=utf-8\n1 < Content-Length: 1809\n1 < Connection: keep-alive\n1 < X-Powered-By: Express\n1 < Access-Control-Allow-Origin: *\n1 < ETag: W\/\"711-USy0skmHxuKHl2gdjVKkpw\"\n{\"page\":1,\"per_page\":10,\"total\":35,\"total_pages\":4,\"data\":[{\"id\":4,\"timestamp\":1554240798496,\"status\":\"RUNNING\",\"operatingParams\":{\"rotorSpeed\":2967,\"slack\":37.32,\"rootThreshold\":0},\"asset\":{\"id\":2,\"alias\":\"Main Rotor Shaft\"}},{\"id\":11,\"timestamp\":1565193225660,\"status\":\"RUNNING\",\"operatingParams\":{\"rotorSpeed\":2363,\"slack\":63.07,\"rootThreshold\":0},\"asset\":{\"id\":4,\"alias\":\"Secondary Rotor\"},\"parent\":{\"id\":2,\"alias\":\"Main Rotor Shaft\"}},{\"id\":14,\"timestamp\":1566352838102,\"status\":\"RUNNING\",\"operatingParams\":{\"rotorSpeed\":1536,\"slack\":86.52,\"rootThreshold\":0},\"asset\":{\"id\":2,\"alias\":\"Main Rotor Shaft\"}},{\"id\":15,\"timestamp\":1565008649102,\"status\":\"RUNNING\",\"operatingParams\":{\"rotorSpeed\":4114,\"slack\":45.38,\"rootThreshold\":0},\"asset\":{\"id\":1,\"alias\":\"Axle Motor\"},\"parent\":null},{\"id\":19,\"timestamp\":1546917341408,\"status\":\"RUNNING\",\"operatingParams\":{\"rotorSpeed\":2673,\"slack\":16.3,\"rootThreshold\":0},\"asset\":{\"id\":2,\"alias\":\"Main Rotor Shaft\"}},{\"id\":23,\"timestamp\":1554478379196,\"status\":\"RUNNING\",\"operatingParams\":{\"rotorSpeed\":2319,\"slack\":91.81,\"rootThreshold\":0},\"asset\":{\"id\":1,\"alias\":\"Axle Motor\"},\"parent\":null},{\"id\":27,\"timestamp\":1565715044200,\"status\":\"RUNNING\",\"operatingParams\":{\"rotorSpeed\":2257,\"slack\":65.91,\"rootThreshold\":0},\"asset\":{\"id\":7,\"alias\":\"Counter Blades\"}},{\"id\":28,\"timestamp\":1563744781223,\"status\":\"RUNNING\",\"operatingParams\":{\"rotorSpeed\":4056,\"slack\":40.1,\"rootThreshold\":0},\"asset\":{\"id\":6,\"alias\":\"Penstock Guage\"}},{\"id\":29,\"timestamp\":1551346719679,\"status\":\"RUNNING\",\"operatingParams\":{\"rotorSpeed\":2679,\"slack\":58.29,\"rootThreshold\":0},\"asset\":{\"id\":7,\"alias\":\"Counter Blades\"}},{\"id\":40,\"timestamp\":1548040103302,\"status\":\"RUNNING\",\"operatingParams\":{\"rotorSpeed\":1807,\"slack\":34.12,\"rootThreshold\":0},\"asset\":{\"id\":1,\"alias\":\"Axle Motor\"},\"parent\":null}]}\n"},{"result":{"nanos":41699,"millis":0.041699,"status":"passed"},"step":{"line":30,"prefix":"Then","index":3,"text":"status 200"}},{"result":{"nanos":2166652,"millis":2.166652,"status":"passed"},"step":{"line":31,"prefix":"And","index":4,"text":"def k = response.data"}},{"result":{"nanos":913921,"millis":0.913921,"status":"passed"},"step":{"comments":["# And print k","#   * def process = call read('.\/javascript.feature')"],"line":36,"prefix":"*","index":5,"text":"def key = 'operatingParams'"}},{"result":{"nanos":127544552,"errorMessage":"js failed:\n>>>>\n01: function(jsonData){\n02:    let data = jsonData.jd;\n03:    let param = jsonData.p;\n04: console.log(data +' data');\n05: console.log(param +' param');\n06:    for(let k =0;k<data.length;k++){\n07:      let obj = data[k];\n08: if(obj.hasOwnProperty(param)){\n09:  if(obj.param.rotorSpeed==2673){\n10:    console.log('matched');\n11:    return obj.param;\n12:  }\n13:   \n14: }\n15:    }\n16:    return jsonData;\n17: }\n<<<<\norg.graalvm.polyglot.PolyglotException: TypeError: Cannot read property \"rotorSpeed\" from undefined\n- <js>.:anonymous(Unnamed:9)\n\nclasspath:examples\/users\/users.feature:37","millis":127.544552,"status":"failed"},"step":{"line":37,"prefix":"*","index":6,"text":"json kari = call processJson {jd:'#(k)',p:'#(key)'}"},"stepLog":"10:57:03.111 classpath:examples\/users\/users.feature:37\n* json kari = call processJson {jd:'#(k)',p:'#(key)'}\njs failed:\n>>>>\n01: function(jsonData){\n02:    let data = jsonData.jd;\n03:    let param = jsonData.p;\n04: console.log(data +' data');\n05: console.log(param +' param');\n06:    for(let k =0;k<data.length;k++){\n07:      let obj = data[k];\n08: if(obj.hasOwnProperty(param)){\n09:  if(obj.param.rotorSpeed==2673){\n10:    console.log('matched');\n11:    return obj.param;\n12:  }\n13:   \n14: }\n15:    }\n16:    return jsonData;\n17: }\n<<<<\norg.graalvm.polyglot.PolyglotException: TypeError: Cannot read property \"rotorSpeed\" from undefined\n- <js>.:anonymous(Unnamed:9)\n\nclasspath:examples\/users\/users.feature:37\n"},{"result":{"nanos":0,"millis":0.0,"status":"skipped"},"step":{"line":38,"prefix":"*","index":7,"text":"print kari.rotorSpeed"}}],"line":4,"description":"","durationMillis":1485.469641,"failed":true,"error":"js failed:\n>>>>\n01: function(jsonData){\n02:    let data = jsonData.jd;\n03:    let param = jsonData.p;\n04: console.log(data +' data');\n05: console.log(param +' param');\n06:    for(let k =0;k<data.length;k++){\n07:      let obj = data[k];\n08: if(obj.hasOwnProperty(param)){\n09:  if(obj.param.rotorSpeed==2673){\n10:    console.log('matched');\n11:    return obj.param;\n12:  }\n13:   \n14: }\n15:    }\n16:    return jsonData;\n17: }\n<<<<\norg.graalvm.polyglot.PolyglotException: TypeError: Cannot read property \"rotorSpeed\" from undefined\n- <js>.:anonymous(Unnamed:9)\n\nclasspath:examples\/users\/users.feature:37","executorName":"pool-1-thread-2","name":"get data","startTime":1645217821453,"refId":"[1:4]","endTime":1645217823111,"exampleIndex":-1}],"callDepth":0,"name":"sample karate test script","description":"","resultDate":"2022-02-18 10:57:03 AM","durationMillis":1485.469641,"passedCount":0}