{"failedCount":1,"prefixedPath":"classpath:examples\/users\/users.feature","packageQualifiedName":"examples.users.users","loopIndex":-1,"relativePath":"examples\/users\/users.feature","scenarioResults":[{"sectionIndex":0,"stepResults":[{"result":{"nanos":20313363,"millis":20.313363,"status":"passed"},"step":{"endLine":26,"line":6,"prefix":"*","docString":"function(json, k){\nfor(let i=0; i<json.length; i++){\nlet currentObj = json[i];\nfor(var n in currentObj){\n   var key = n;\n   var val = currentObj[n];\n   for(var j in val){\n       var sub_key = j;\n       var sub_val = val[j];\n       console.log(sub_key);\n   }\n}\n}\n}","index":0,"text":"def processJson ="},"stepLog":"10:00:15.249 karate.env system property was: null \n"},{"result":{"nanos":747391,"millis":0.747391,"status":"passed"},"step":{"line":28,"prefix":"Given","index":1,"text":"url 'https:\/\/jsonmock.hackerrank.com\/api\/iot_devices\/search?status=RUNNING'"}},{"result":{"nanos":1423457019,"millis":1423.457019,"status":"passed"},"step":{"line":29,"prefix":"When","index":2,"text":"method get"},"stepLog":"10:00:15.550 request:\n1 > GET https:\/\/jsonmock.hackerrank.com\/api\/iot_devices\/search?status=RUNNING\n1 > Host: jsonmock.hackerrank.com\n1 > Connection: Keep-Alive\n1 > User-Agent: Apache-HttpClient\/4.5.13 (Java\/14)\n1 > Accept-Encoding: gzip,deflate\n\n\n10:00:16.720 response time in milliseconds: 1167\n1 < 200\n1 < Date: Fri, 18 Feb 2022 20:00:16 GMT\n1 < Content-Type: application\/json; charset=utf-8\n1 < Content-Length: 1809\n1 < Connection: keep-alive\n1 < X-Powered-By: Express\n1 < Access-Control-Allow-Origin: *\n1 < ETag: W\/\"711-USy0skmHxuKHl2gdjVKkpw\"\n{\"page\":1,\"per_page\":10,\"total\":35,\"total_pages\":4,\"data\":[{\"id\":4,\"timestamp\":1554240798496,\"status\":\"RUNNING\",\"operatingParams\":{\"rotorSpeed\":2967,\"slack\":37.32,\"rootThreshold\":0},\"asset\":{\"id\":2,\"alias\":\"Main Rotor Shaft\"}},{\"id\":11,\"timestamp\":1565193225660,\"status\":\"RUNNING\",\"operatingParams\":{\"rotorSpeed\":2363,\"slack\":63.07,\"rootThreshold\":0},\"asset\":{\"id\":4,\"alias\":\"Secondary Rotor\"},\"parent\":{\"id\":2,\"alias\":\"Main Rotor Shaft\"}},{\"id\":14,\"timestamp\":1566352838102,\"status\":\"RUNNING\",\"operatingParams\":{\"rotorSpeed\":1536,\"slack\":86.52,\"rootThreshold\":0},\"asset\":{\"id\":2,\"alias\":\"Main Rotor Shaft\"}},{\"id\":15,\"timestamp\":1565008649102,\"status\":\"RUNNING\",\"operatingParams\":{\"rotorSpeed\":4114,\"slack\":45.38,\"rootThreshold\":0},\"asset\":{\"id\":1,\"alias\":\"Axle Motor\"},\"parent\":null},{\"id\":19,\"timestamp\":1546917341408,\"status\":\"RUNNING\",\"operatingParams\":{\"rotorSpeed\":2673,\"slack\":16.3,\"rootThreshold\":0},\"asset\":{\"id\":2,\"alias\":\"Main Rotor Shaft\"}},{\"id\":23,\"timestamp\":1554478379196,\"status\":\"RUNNING\",\"operatingParams\":{\"rotorSpeed\":2319,\"slack\":91.81,\"rootThreshold\":0},\"asset\":{\"id\":1,\"alias\":\"Axle Motor\"},\"parent\":null},{\"id\":27,\"timestamp\":1565715044200,\"status\":\"RUNNING\",\"operatingParams\":{\"rotorSpeed\":2257,\"slack\":65.91,\"rootThreshold\":0},\"asset\":{\"id\":7,\"alias\":\"Counter Blades\"}},{\"id\":28,\"timestamp\":1563744781223,\"status\":\"RUNNING\",\"operatingParams\":{\"rotorSpeed\":4056,\"slack\":40.1,\"rootThreshold\":0},\"asset\":{\"id\":6,\"alias\":\"Penstock Guage\"}},{\"id\":29,\"timestamp\":1551346719679,\"status\":\"RUNNING\",\"operatingParams\":{\"rotorSpeed\":2679,\"slack\":58.29,\"rootThreshold\":0},\"asset\":{\"id\":7,\"alias\":\"Counter Blades\"}},{\"id\":40,\"timestamp\":1548040103302,\"status\":\"RUNNING\",\"operatingParams\":{\"rotorSpeed\":1807,\"slack\":34.12,\"rootThreshold\":0},\"asset\":{\"id\":1,\"alias\":\"Axle Motor\"},\"parent\":null}]}\n"},{"result":{"nanos":49025,"millis":0.049025,"status":"passed"},"step":{"line":30,"prefix":"Then","index":3,"text":"status 200"}},{"result":{"nanos":3788911,"millis":3.788911,"status":"passed"},"step":{"line":31,"prefix":"And","index":4,"text":"print response.data[0]"},"stepLog":"10:00:16.729 [print] {\n  \"id\": 4,\n  \"timestamp\": 1554240798496,\n  \"status\": \"RUNNING\",\n  \"operatingParams\": {\n    \"rotorSpeed\": 2967,\n    \"slack\": 37.32,\n    \"rootThreshold\": 0\n  },\n  \"asset\": {\n    \"id\": 2,\n    \"alias\": \"Main Rotor Shaft\"\n  }\n}\n \n"},{"result":{"nanos":1375778,"millis":1.375778,"status":"passed"},"step":{"comments":["#   * def process = call read('.\/javascript.feature')"],"line":35,"prefix":"*","index":5,"text":"def key = 'operatingParams'"}},{"result":{"nanos":64962304,"errorMessage":"cannot convert to json: [type: NULL, value: null]\nclasspath:examples\/users\/users.feature:36","millis":64.962304,"status":"failed"},"step":{"line":36,"prefix":"*","index":6,"text":"json kari = call processJson response.data, key"},"stepLog":"10:00:16.798 classpath:examples\/users\/users.feature:36\n* json kari = call processJson response.data, key\ncannot convert to json: [type: NULL, value: null]\nclasspath:examples\/users\/users.feature:36\n"}],"line":4,"description":"","durationMillis":1514.693791,"failed":true,"error":"cannot convert to json: [type: NULL, value: null]\nclasspath:examples\/users\/users.feature:36","executorName":"pool-1-thread-2","name":"get data","startTime":1645214415102,"refId":"[1:4]","endTime":1645214416798,"exampleIndex":-1}],"callDepth":0,"name":"sample karate test script","description":"","resultDate":"2022-02-18 10:00:16 AM","durationMillis":1514.693791,"passedCount":0}