{"failedCount":1,"prefixedPath":"classpath:examples\/users\/users.feature","packageQualifiedName":"examples.users.users","loopIndex":-1,"relativePath":"examples\/users\/users.feature","scenarioResults":[{"sectionIndex":0,"stepResults":[{"result":{"nanos":2033873,"millis":2.033873,"status":"passed"},"step":{"endLine":12,"line":6,"prefix":"*","docString":"function(json, key){\n   return json;\n}","index":0,"text":"def processJson ="},"stepLog":"09:32:47.387 karate.env system property was: null \n"},{"result":{"nanos":604455,"millis":0.604455,"status":"passed"},"step":{"line":14,"prefix":"Given","index":1,"text":"url 'https:\/\/jsonmock.hackerrank.com\/api\/iot_devices\/search?status=RUNNING'"}},{"result":{"nanos":1687302169,"millis":1687.302169,"status":"passed"},"step":{"line":15,"prefix":"When","index":2,"text":"method get"},"stepLog":"09:32:47.682 request:\n1 > GET https:\/\/jsonmock.hackerrank.com\/api\/iot_devices\/search?status=RUNNING\n1 > Host: jsonmock.hackerrank.com\n1 > Connection: Keep-Alive\n1 > User-Agent: Apache-HttpClient\/4.5.13 (Java\/14)\n1 > Accept-Encoding: gzip,deflate\n\n\n09:32:49.106 response time in milliseconds: 1421\n1 < 200\n1 < Date: Fri, 18 Feb 2022 19:32:49 GMT\n1 < Content-Type: application\/json; charset=utf-8\n1 < Content-Length: 1809\n1 < Connection: keep-alive\n1 < X-Powered-By: Express\n1 < Access-Control-Allow-Origin: *\n1 < ETag: W\/\"711-USy0skmHxuKHl2gdjVKkpw\"\n{\"page\":1,\"per_page\":10,\"total\":35,\"total_pages\":4,\"data\":[{\"id\":4,\"timestamp\":1554240798496,\"status\":\"RUNNING\",\"operatingParams\":{\"rotorSpeed\":2967,\"slack\":37.32,\"rootThreshold\":0},\"asset\":{\"id\":2,\"alias\":\"Main Rotor Shaft\"}},{\"id\":11,\"timestamp\":1565193225660,\"status\":\"RUNNING\",\"operatingParams\":{\"rotorSpeed\":2363,\"slack\":63.07,\"rootThreshold\":0},\"asset\":{\"id\":4,\"alias\":\"Secondary Rotor\"},\"parent\":{\"id\":2,\"alias\":\"Main Rotor Shaft\"}},{\"id\":14,\"timestamp\":1566352838102,\"status\":\"RUNNING\",\"operatingParams\":{\"rotorSpeed\":1536,\"slack\":86.52,\"rootThreshold\":0},\"asset\":{\"id\":2,\"alias\":\"Main Rotor Shaft\"}},{\"id\":15,\"timestamp\":1565008649102,\"status\":\"RUNNING\",\"operatingParams\":{\"rotorSpeed\":4114,\"slack\":45.38,\"rootThreshold\":0},\"asset\":{\"id\":1,\"alias\":\"Axle Motor\"},\"parent\":null},{\"id\":19,\"timestamp\":1546917341408,\"status\":\"RUNNING\",\"operatingParams\":{\"rotorSpeed\":2673,\"slack\":16.3,\"rootThreshold\":0},\"asset\":{\"id\":2,\"alias\":\"Main Rotor Shaft\"}},{\"id\":23,\"timestamp\":1554478379196,\"status\":\"RUNNING\",\"operatingParams\":{\"rotorSpeed\":2319,\"slack\":91.81,\"rootThreshold\":0},\"asset\":{\"id\":1,\"alias\":\"Axle Motor\"},\"parent\":null},{\"id\":27,\"timestamp\":1565715044200,\"status\":\"RUNNING\",\"operatingParams\":{\"rotorSpeed\":2257,\"slack\":65.91,\"rootThreshold\":0},\"asset\":{\"id\":7,\"alias\":\"Counter Blades\"}},{\"id\":28,\"timestamp\":1563744781223,\"status\":\"RUNNING\",\"operatingParams\":{\"rotorSpeed\":4056,\"slack\":40.1,\"rootThreshold\":0},\"asset\":{\"id\":6,\"alias\":\"Penstock Guage\"}},{\"id\":29,\"timestamp\":1551346719679,\"status\":\"RUNNING\",\"operatingParams\":{\"rotorSpeed\":2679,\"slack\":58.29,\"rootThreshold\":0},\"asset\":{\"id\":7,\"alias\":\"Counter Blades\"}},{\"id\":40,\"timestamp\":1548040103302,\"status\":\"RUNNING\",\"operatingParams\":{\"rotorSpeed\":1807,\"slack\":34.12,\"rootThreshold\":0},\"asset\":{\"id\":1,\"alias\":\"Axle Motor\"},\"parent\":null}]}\n"},{"result":{"nanos":38085,"millis":0.038085,"status":"passed"},"step":{"line":16,"prefix":"Then","index":3,"text":"status 200"}},{"result":{"nanos":5459267,"millis":5.459267,"status":"passed"},"step":{"line":17,"prefix":"And","index":4,"text":"print response.data"},"stepLog":"09:32:49.122 [print] [\n  {\n    \"id\": 4,\n    \"timestamp\": 1554240798496,\n    \"status\": \"RUNNING\",\n    \"operatingParams\": {\n      \"rotorSpeed\": 2967,\n      \"slack\": 37.32,\n      \"rootThreshold\": 0\n    },\n    \"asset\": {\n      \"id\": 2,\n      \"alias\": \"Main Rotor Shaft\"\n    }\n  },\n  {\n    \"id\": 11,\n    \"timestamp\": 1565193225660,\n    \"status\": \"RUNNING\",\n    \"operatingParams\": {\n      \"rotorSpeed\": 2363,\n      \"slack\": 63.07,\n      \"rootThreshold\": 0\n    },\n    \"asset\": {\n      \"id\": 4,\n      \"alias\": \"Secondary Rotor\"\n    },\n    \"parent\": {\n      \"id\": 2,\n      \"alias\": \"Main Rotor Shaft\"\n    }\n  },\n  {\n    \"id\": 14,\n    \"timestamp\": 1566352838102,\n    \"status\": \"RUNNING\",\n    \"operatingParams\": {\n      \"rotorSpeed\": 1536,\n      \"slack\": 86.52,\n      \"rootThreshold\": 0\n    },\n    \"asset\": {\n      \"id\": 2,\n      \"alias\": \"Main Rotor Shaft\"\n    }\n  },\n  {\n    \"id\": 15,\n    \"timestamp\": 1565008649102,\n    \"status\": \"RUNNING\",\n    \"operatingParams\": {\n      \"rotorSpeed\": 4114,\n      \"slack\": 45.38,\n      \"rootThreshold\": 0\n    },\n    \"asset\": {\n      \"id\": 1,\n      \"alias\": \"Axle Motor\"\n    },\n    \"parent\": null\n  },\n  {\n    \"id\": 19,\n    \"timestamp\": 1546917341408,\n    \"status\": \"RUNNING\",\n    \"operatingParams\": {\n      \"rotorSpeed\": 2673,\n      \"slack\": 16.3,\n      \"rootThreshold\": 0\n    },\n    \"asset\": {\n      \"id\": 2,\n      \"alias\": \"Main Rotor Shaft\"\n    }\n  },\n  {\n    \"id\": 23,\n    \"timestamp\": 1554478379196,\n    \"status\": \"RUNNING\",\n    \"operatingParams\": {\n      \"rotorSpeed\": 2319,\n      \"slack\": 91.81,\n      \"rootThreshold\": 0\n    },\n    \"asset\": {\n      \"id\": 1,\n      \"alias\": \"Axle Motor\"\n    },\n    \"parent\": null\n  },\n  {\n    \"id\": 27,\n    \"timestamp\": 1565715044200,\n    \"status\": \"RUNNING\",\n    \"operatingParams\": {\n      \"rotorSpeed\": 2257,\n      \"slack\": 65.91,\n      \"rootThreshold\": 0\n    },\n    \"asset\": {\n      \"id\": 7,\n      \"alias\": \"Counter Blades\"\n    }\n  },\n  {\n    \"id\": 28,\n    \"timestamp\": 1563744781223,\n    \"status\": \"RUNNING\",\n    \"operatingParams\": {\n      \"rotorSpeed\": 4056,\n      \"slack\": 40.1,\n      \"rootThreshold\": 0\n    },\n    \"asset\": {\n      \"id\": 6,\n      \"alias\": \"Penstock Guage\"\n    }\n  },\n  {\n    \"id\": 29,\n    \"timestamp\": 1551346719679,\n    \"status\": \"RUNNING\",\n    \"operatingParams\": {\n      \"rotorSpeed\": 2679,\n      \"slack\": 58.29,\n      \"rootThreshold\": 0\n    },\n    \"asset\": {\n      \"id\": 7,\n      \"alias\": \"Counter Blades\"\n    }\n  },\n  {\n    \"id\": 40,\n    \"timestamp\": 1548040103302,\n    \"status\": \"RUNNING\",\n    \"operatingParams\": {\n      \"rotorSpeed\": 1807,\n      \"slack\": 34.12,\n      \"rootThreshold\": 0\n    },\n    \"asset\": {\n      \"id\": 1,\n      \"alias\": \"Axle Motor\"\n    },\n    \"parent\": null\n  }\n]\n \n"},{"result":{"nanos":1096491,"millis":1.096491,"status":"passed"},"step":{"comments":["#   * def process = call read('.\/javascript.feature')"],"line":21,"prefix":"*","index":5,"text":"def key = 'operatingParams'"}},{"result":{"nanos":62520581,"errorMessage":"js failed:\n>>>>\n01: response.data key\n<<<<\norg.graalvm.polyglot.PolyglotException: SyntaxError: Unnamed:1:14 Expected ; but found key\nresponse.data key\n              ^\n\n- org.graalvm.polyglot.Context.eval(Context.java:401)\n- com.intuit.karate.graal.JsEngine.evalForValue(JsEngine.java:141)\n- com.intuit.karate.graal.JsEngine.eval(JsEngine.java:137)\n- com.intuit.karate.core.ScenarioEngine.evalJs(ScenarioEngine.java:1252)\n- com.intuit.karate.core.ScenarioEngine.evalKarateExpression(ScenarioEngine.java:2205)\n- com.intuit.karate.core.ScenarioEngine.evalKarateExpression(ScenarioEngine.java:2124)\n- com.intuit.karate.core.ScenarioEngine.call(ScenarioEngine.java:1921)\n\nclasspath:examples\/users\/users.feature:22","millis":62.520581,"status":"failed"},"step":{"line":22,"prefix":"*","index":6,"text":"json data = call processJson response.data key"},"stepLog":"09:32:49.188 classpath:examples\/users\/users.feature:22\n* json data = call processJson response.data key\njs failed:\n>>>>\n01: response.data key\n<<<<\norg.graalvm.polyglot.PolyglotException: SyntaxError: Unnamed:1:14 Expected ; but found key\nresponse.data key\n              ^\n\n- org.graalvm.polyglot.Context.eval(Context.java:401)\n- com.intuit.karate.graal.JsEngine.evalForValue(JsEngine.java:141)\n- com.intuit.karate.graal.JsEngine.eval(JsEngine.java:137)\n- com.intuit.karate.core.ScenarioEngine.evalJs(ScenarioEngine.java:1252)\n- com.intuit.karate.core.ScenarioEngine.evalKarateExpression(ScenarioEngine.java:2205)\n- com.intuit.karate.core.ScenarioEngine.evalKarateExpression(ScenarioEngine.java:2124)\n- com.intuit.karate.core.ScenarioEngine.call(ScenarioEngine.java:1921)\n\nclasspath:examples\/users\/users.feature:22\n"},{"result":{"nanos":0,"millis":0.0,"status":"skipped"},"step":{"line":23,"prefix":"*","index":7,"text":"print data"}}],"line":4,"description":"","durationMillis":1759.054921,"failed":true,"error":"js failed:\n>>>>\n01: response.data key\n<<<<\norg.graalvm.polyglot.PolyglotException: SyntaxError: Unnamed:1:14 Expected ; but found key\nresponse.data key\n              ^\n\n- org.graalvm.polyglot.Context.eval(Context.java:401)\n- com.intuit.karate.graal.JsEngine.evalForValue(JsEngine.java:141)\n- com.intuit.karate.graal.JsEngine.eval(JsEngine.java:137)\n- com.intuit.karate.core.ScenarioEngine.evalJs(ScenarioEngine.java:1252)\n- com.intuit.karate.core.ScenarioEngine.evalKarateExpression(ScenarioEngine.java:2205)\n- com.intuit.karate.core.ScenarioEngine.evalKarateExpression(ScenarioEngine.java:2124)\n- com.intuit.karate.core.ScenarioEngine.call(ScenarioEngine.java:1921)\n\nclasspath:examples\/users\/users.feature:22","executorName":"pool-1-thread-2","name":"get data","startTime":1645212767228,"refId":"[1:4]","endTime":1645212769188,"exampleIndex":-1}],"callDepth":0,"name":"sample karate test script","description":"","resultDate":"2022-02-18 09:32:49 AM","durationMillis":1759.054921,"passedCount":0}