{"failedCount":1,"prefixedPath":"classpath:examples\/users\/users.feature","packageQualifiedName":"examples.users.users","loopIndex":-1,"relativePath":"examples\/users\/users.feature","scenarioResults":[{"sectionIndex":0,"stepResults":[{"result":{"nanos":2540559,"millis":2.540559,"status":"passed"},"step":{"endLine":11,"line":6,"prefix":"*","docString":"function(json, k){\nconsole.log(json.data[1]);\n}","index":0,"text":"def processJson ="},"stepLog":"10:12:43.832 karate.env system property was: null \n"},{"result":{"nanos":1279245,"millis":1.279245,"status":"passed"},"step":{"line":13,"prefix":"Given","index":1,"text":"url 'https:\/\/jsonmock.hackerrank.com\/api\/iot_devices\/search?status=RUNNING'"}},{"result":{"nanos":1612342498,"millis":1612.342498,"status":"passed"},"step":{"line":14,"prefix":"When","index":2,"text":"method get"},"stepLog":"10:12:44.122 request:\n1 > GET https:\/\/jsonmock.hackerrank.com\/api\/iot_devices\/search?status=RUNNING\n1 > Host: jsonmock.hackerrank.com\n1 > Connection: Keep-Alive\n1 > User-Agent: Apache-HttpClient\/4.5.13 (Java\/14)\n1 > Accept-Encoding: gzip,deflate\n\n\n10:12:45.471 response time in milliseconds: 1345\n1 < 200\n1 < Date: Fri, 18 Feb 2022 20:12:45 GMT\n1 < Content-Type: application\/json; charset=utf-8\n1 < Content-Length: 1809\n1 < Connection: keep-alive\n1 < X-Powered-By: Express\n1 < Access-Control-Allow-Origin: *\n1 < ETag: W\/\"711-USy0skmHxuKHl2gdjVKkpw\"\n{\"page\":1,\"per_page\":10,\"total\":35,\"total_pages\":4,\"data\":[{\"id\":4,\"timestamp\":1554240798496,\"status\":\"RUNNING\",\"operatingParams\":{\"rotorSpeed\":2967,\"slack\":37.32,\"rootThreshold\":0},\"asset\":{\"id\":2,\"alias\":\"Main Rotor Shaft\"}},{\"id\":11,\"timestamp\":1565193225660,\"status\":\"RUNNING\",\"operatingParams\":{\"rotorSpeed\":2363,\"slack\":63.07,\"rootThreshold\":0},\"asset\":{\"id\":4,\"alias\":\"Secondary Rotor\"},\"parent\":{\"id\":2,\"alias\":\"Main Rotor Shaft\"}},{\"id\":14,\"timestamp\":1566352838102,\"status\":\"RUNNING\",\"operatingParams\":{\"rotorSpeed\":1536,\"slack\":86.52,\"rootThreshold\":0},\"asset\":{\"id\":2,\"alias\":\"Main Rotor Shaft\"}},{\"id\":15,\"timestamp\":1565008649102,\"status\":\"RUNNING\",\"operatingParams\":{\"rotorSpeed\":4114,\"slack\":45.38,\"rootThreshold\":0},\"asset\":{\"id\":1,\"alias\":\"Axle Motor\"},\"parent\":null},{\"id\":19,\"timestamp\":1546917341408,\"status\":\"RUNNING\",\"operatingParams\":{\"rotorSpeed\":2673,\"slack\":16.3,\"rootThreshold\":0},\"asset\":{\"id\":2,\"alias\":\"Main Rotor Shaft\"}},{\"id\":23,\"timestamp\":1554478379196,\"status\":\"RUNNING\",\"operatingParams\":{\"rotorSpeed\":2319,\"slack\":91.81,\"rootThreshold\":0},\"asset\":{\"id\":1,\"alias\":\"Axle Motor\"},\"parent\":null},{\"id\":27,\"timestamp\":1565715044200,\"status\":\"RUNNING\",\"operatingParams\":{\"rotorSpeed\":2257,\"slack\":65.91,\"rootThreshold\":0},\"asset\":{\"id\":7,\"alias\":\"Counter Blades\"}},{\"id\":28,\"timestamp\":1563744781223,\"status\":\"RUNNING\",\"operatingParams\":{\"rotorSpeed\":4056,\"slack\":40.1,\"rootThreshold\":0},\"asset\":{\"id\":6,\"alias\":\"Penstock Guage\"}},{\"id\":29,\"timestamp\":1551346719679,\"status\":\"RUNNING\",\"operatingParams\":{\"rotorSpeed\":2679,\"slack\":58.29,\"rootThreshold\":0},\"asset\":{\"id\":7,\"alias\":\"Counter Blades\"}},{\"id\":40,\"timestamp\":1548040103302,\"status\":\"RUNNING\",\"operatingParams\":{\"rotorSpeed\":1807,\"slack\":34.12,\"rootThreshold\":0},\"asset\":{\"id\":1,\"alias\":\"Axle Motor\"},\"parent\":null}]}\n"},{"result":{"nanos":90159,"millis":0.090159,"status":"passed"},"step":{"line":15,"prefix":"Then","index":3,"text":"status 200"}},{"result":{"nanos":1425312,"millis":1.425312,"status":"passed"},"step":{"comments":["#And print response"],"line":17,"prefix":"*","index":4,"text":"json r = response"}},{"result":{"nanos":2172461,"millis":2.172461,"status":"passed"},"step":{"comments":["#   * def process = call read('.\/javascript.feature')"],"line":21,"prefix":"*","index":5,"text":"def key = 'operatingParams'"}},{"result":{"nanos":26910121,"errorMessage":"js failed:\n>>>>\n01: function(json, k){\n02: console.log(json.data[1]);\n03: }\n<<<<\norg.graalvm.polyglot.PolyglotException: TypeError: Cannot read property \"1\" from undefined\n- <js>.:anonymous(Unnamed:2)\n\nclasspath:examples\/users\/users.feature:22","millis":26.910121,"status":"failed"},"step":{"line":22,"prefix":"*","index":6,"text":"json kari = call processJson r, key"},"stepLog":"10:12:45.511 classpath:examples\/users\/users.feature:22\n* json kari = call processJson r, key\njs failed:\n>>>>\n01: function(json, k){\n02: console.log(json.data[1]);\n03: }\n<<<<\norg.graalvm.polyglot.PolyglotException: TypeError: Cannot read property \"1\" from undefined\n- <js>.:anonymous(Unnamed:2)\n\nclasspath:examples\/users\/users.feature:22\n"}],"line":4,"description":"","durationMillis":1646.760355,"failed":true,"error":"js failed:\n>>>>\n01: function(json, k){\n02: console.log(json.data[1]);\n03: }\n<<<<\norg.graalvm.polyglot.PolyglotException: TypeError: Cannot read property \"1\" from undefined\n- <js>.:anonymous(Unnamed:2)\n\nclasspath:examples\/users\/users.feature:22","executorName":"pool-1-thread-2","name":"get data","startTime":1645215163683,"refId":"[1:4]","endTime":1645215165511,"exampleIndex":-1}],"callDepth":0,"name":"sample karate test script","description":"","resultDate":"2022-02-18 10:12:45 AM","durationMillis":1646.760355,"passedCount":0}