{"failedCount":1,"prefixedPath":"classpath:examples\/users\/users.feature","packageQualifiedName":"examples.users.users","loopIndex":-1,"relativePath":"examples\/users\/users.feature","scenarioResults":[{"sectionIndex":0,"stepResults":[{"result":{"nanos":14268012,"millis":14.268012,"status":"passed"},"step":{"endLine":19,"line":6,"prefix":"*","docString":"function(json, k){\nfor(var key in json){\n   console.log('Javascript function '+ key);\nif(json.hasOwnProperty(k)){\n console.log('Javascript function '+ key);\n return json[key];\n}\n}\n   return null;\n}","index":0,"text":"def processJson ="},"stepLog":"09:41:33.748 karate.env system property was: null \n"},{"result":{"nanos":713523,"millis":0.713523,"status":"passed"},"step":{"line":21,"prefix":"Given","index":1,"text":"url 'https:\/\/jsonmock.hackerrank.com\/api\/iot_devices\/search?status=RUNNING'"}},{"result":{"nanos":1370974598,"millis":1370.974598,"status":"passed"},"step":{"line":22,"prefix":"When","index":2,"text":"method get"},"stepLog":"09:41:34.026 request:\n1 > GET https:\/\/jsonmock.hackerrank.com\/api\/iot_devices\/search?status=RUNNING\n1 > Host: jsonmock.hackerrank.com\n1 > Connection: Keep-Alive\n1 > User-Agent: Apache-HttpClient\/4.5.13 (Java\/14)\n1 > Accept-Encoding: gzip,deflate\n\n\n09:41:35.152 response time in milliseconds: 1123\n1 < 200\n1 < Date: Fri, 18 Feb 2022 19:41:35 GMT\n1 < Content-Type: application\/json; charset=utf-8\n1 < Content-Length: 1809\n1 < Connection: keep-alive\n1 < X-Powered-By: Express\n1 < Access-Control-Allow-Origin: *\n1 < ETag: W\/\"711-USy0skmHxuKHl2gdjVKkpw\"\n{\"page\":1,\"per_page\":10,\"total\":35,\"total_pages\":4,\"data\":[{\"id\":4,\"timestamp\":1554240798496,\"status\":\"RUNNING\",\"operatingParams\":{\"rotorSpeed\":2967,\"slack\":37.32,\"rootThreshold\":0},\"asset\":{\"id\":2,\"alias\":\"Main Rotor Shaft\"}},{\"id\":11,\"timestamp\":1565193225660,\"status\":\"RUNNING\",\"operatingParams\":{\"rotorSpeed\":2363,\"slack\":63.07,\"rootThreshold\":0},\"asset\":{\"id\":4,\"alias\":\"Secondary Rotor\"},\"parent\":{\"id\":2,\"alias\":\"Main Rotor Shaft\"}},{\"id\":14,\"timestamp\":1566352838102,\"status\":\"RUNNING\",\"operatingParams\":{\"rotorSpeed\":1536,\"slack\":86.52,\"rootThreshold\":0},\"asset\":{\"id\":2,\"alias\":\"Main Rotor Shaft\"}},{\"id\":15,\"timestamp\":1565008649102,\"status\":\"RUNNING\",\"operatingParams\":{\"rotorSpeed\":4114,\"slack\":45.38,\"rootThreshold\":0},\"asset\":{\"id\":1,\"alias\":\"Axle Motor\"},\"parent\":null},{\"id\":19,\"timestamp\":1546917341408,\"status\":\"RUNNING\",\"operatingParams\":{\"rotorSpeed\":2673,\"slack\":16.3,\"rootThreshold\":0},\"asset\":{\"id\":2,\"alias\":\"Main Rotor Shaft\"}},{\"id\":23,\"timestamp\":1554478379196,\"status\":\"RUNNING\",\"operatingParams\":{\"rotorSpeed\":2319,\"slack\":91.81,\"rootThreshold\":0},\"asset\":{\"id\":1,\"alias\":\"Axle Motor\"},\"parent\":null},{\"id\":27,\"timestamp\":1565715044200,\"status\":\"RUNNING\",\"operatingParams\":{\"rotorSpeed\":2257,\"slack\":65.91,\"rootThreshold\":0},\"asset\":{\"id\":7,\"alias\":\"Counter Blades\"}},{\"id\":28,\"timestamp\":1563744781223,\"status\":\"RUNNING\",\"operatingParams\":{\"rotorSpeed\":4056,\"slack\":40.1,\"rootThreshold\":0},\"asset\":{\"id\":6,\"alias\":\"Penstock Guage\"}},{\"id\":29,\"timestamp\":1551346719679,\"status\":\"RUNNING\",\"operatingParams\":{\"rotorSpeed\":2679,\"slack\":58.29,\"rootThreshold\":0},\"asset\":{\"id\":7,\"alias\":\"Counter Blades\"}},{\"id\":40,\"timestamp\":1548040103302,\"status\":\"RUNNING\",\"operatingParams\":{\"rotorSpeed\":1807,\"slack\":34.12,\"rootThreshold\":0},\"asset\":{\"id\":1,\"alias\":\"Axle Motor\"},\"parent\":null}]}\n"},{"result":{"nanos":56536,"millis":0.056536,"status":"passed"},"step":{"line":23,"prefix":"Then","index":3,"text":"status 200"}},{"result":{"nanos":3054558,"millis":3.054558,"status":"passed"},"step":{"comments":["#   * def process = call read('.\/javascript.feature')"],"line":28,"prefix":"*","index":4,"text":"def key = 'operatingParams'"}},{"result":{"nanos":49554320,"errorMessage":"cannot convert to json: [type: NULL, value: null]\nclasspath:examples\/users\/users.feature:29","millis":49.55432,"status":"failed"},"step":{"line":29,"prefix":"*","index":5,"text":"json kari = call processJson response.data, key"},"stepLog":"09:41:35.216 classpath:examples\/users\/users.feature:29\n* json kari = call processJson response.data, key\ncannot convert to json: [type: NULL, value: null]\nclasspath:examples\/users\/users.feature:29\n"},{"result":{"nanos":0,"millis":0.0,"status":"skipped"},"step":{"line":30,"prefix":"*","index":6,"text":"print kari[0]"}}],"line":4,"description":"","durationMillis":1438.621547,"failed":true,"error":"cannot convert to json: [type: NULL, value: null]\nclasspath:examples\/users\/users.feature:29","executorName":"pool-1-thread-2","name":"get data","startTime":1645213293616,"refId":"[1:4]","endTime":1645213295216,"exampleIndex":-1}],"callDepth":0,"name":"sample karate test script","description":"","resultDate":"2022-02-18 09:41:35 AM","durationMillis":1438.621547,"passedCount":0}