{"failedCount":1,"prefixedPath":"classpath:examples\/users\/users.feature","packageQualifiedName":"examples.users.users","loopIndex":-1,"relativePath":"examples\/users\/users.feature","scenarioResults":[{"sectionIndex":0,"stepResults":[{"result":{"nanos":14016947,"millis":14.016947,"status":"passed"},"step":{"endLine":19,"line":6,"prefix":"*","docString":"function(jsonData){\nfor(var i in jsonData){\n   var key = i;\n   var val = jsonData[i];\n   for(var j in val){\n       var sub_key = j;\n       var sub_val = val[j];\n       console.log(sub_key);\n   }\n}\n}","index":0,"text":"def processJson ="},"stepLog":"10:27:26.360 karate.env system property was: null \n"},{"result":{"nanos":751254,"millis":0.751254,"status":"passed"},"step":{"line":21,"prefix":"Given","index":1,"text":"url 'https:\/\/jsonmock.hackerrank.com\/api\/iot_devices\/search?status=RUNNING'"}},{"result":{"nanos":1694720087,"millis":1694.720087,"status":"passed"},"step":{"line":22,"prefix":"When","index":2,"text":"method get"},"stepLog":"10:27:26.655 request:\n1 > GET https:\/\/jsonmock.hackerrank.com\/api\/iot_devices\/search?status=RUNNING\n1 > Host: jsonmock.hackerrank.com\n1 > Connection: Keep-Alive\n1 > User-Agent: Apache-HttpClient\/4.5.13 (Java\/14)\n1 > Accept-Encoding: gzip,deflate\n\n\n10:27:28.098 response time in milliseconds: 1441\n1 < 200\n1 < Date: Fri, 18 Feb 2022 20:27:28 GMT\n1 < Content-Type: application\/json; charset=utf-8\n1 < Content-Length: 1809\n1 < Connection: keep-alive\n1 < X-Powered-By: Express\n1 < Access-Control-Allow-Origin: *\n1 < ETag: W\/\"711-USy0skmHxuKHl2gdjVKkpw\"\n{\"page\":1,\"per_page\":10,\"total\":35,\"total_pages\":4,\"data\":[{\"id\":4,\"timestamp\":1554240798496,\"status\":\"RUNNING\",\"operatingParams\":{\"rotorSpeed\":2967,\"slack\":37.32,\"rootThreshold\":0},\"asset\":{\"id\":2,\"alias\":\"Main Rotor Shaft\"}},{\"id\":11,\"timestamp\":1565193225660,\"status\":\"RUNNING\",\"operatingParams\":{\"rotorSpeed\":2363,\"slack\":63.07,\"rootThreshold\":0},\"asset\":{\"id\":4,\"alias\":\"Secondary Rotor\"},\"parent\":{\"id\":2,\"alias\":\"Main Rotor Shaft\"}},{\"id\":14,\"timestamp\":1566352838102,\"status\":\"RUNNING\",\"operatingParams\":{\"rotorSpeed\":1536,\"slack\":86.52,\"rootThreshold\":0},\"asset\":{\"id\":2,\"alias\":\"Main Rotor Shaft\"}},{\"id\":15,\"timestamp\":1565008649102,\"status\":\"RUNNING\",\"operatingParams\":{\"rotorSpeed\":4114,\"slack\":45.38,\"rootThreshold\":0},\"asset\":{\"id\":1,\"alias\":\"Axle Motor\"},\"parent\":null},{\"id\":19,\"timestamp\":1546917341408,\"status\":\"RUNNING\",\"operatingParams\":{\"rotorSpeed\":2673,\"slack\":16.3,\"rootThreshold\":0},\"asset\":{\"id\":2,\"alias\":\"Main Rotor Shaft\"}},{\"id\":23,\"timestamp\":1554478379196,\"status\":\"RUNNING\",\"operatingParams\":{\"rotorSpeed\":2319,\"slack\":91.81,\"rootThreshold\":0},\"asset\":{\"id\":1,\"alias\":\"Axle Motor\"},\"parent\":null},{\"id\":27,\"timestamp\":1565715044200,\"status\":\"RUNNING\",\"operatingParams\":{\"rotorSpeed\":2257,\"slack\":65.91,\"rootThreshold\":0},\"asset\":{\"id\":7,\"alias\":\"Counter Blades\"}},{\"id\":28,\"timestamp\":1563744781223,\"status\":\"RUNNING\",\"operatingParams\":{\"rotorSpeed\":4056,\"slack\":40.1,\"rootThreshold\":0},\"asset\":{\"id\":6,\"alias\":\"Penstock Guage\"}},{\"id\":29,\"timestamp\":1551346719679,\"status\":\"RUNNING\",\"operatingParams\":{\"rotorSpeed\":2679,\"slack\":58.29,\"rootThreshold\":0},\"asset\":{\"id\":7,\"alias\":\"Counter Blades\"}},{\"id\":40,\"timestamp\":1548040103302,\"status\":\"RUNNING\",\"operatingParams\":{\"rotorSpeed\":1807,\"slack\":34.12,\"rootThreshold\":0},\"asset\":{\"id\":1,\"alias\":\"Axle Motor\"},\"parent\":null}]}\n"},{"result":{"nanos":31266,"millis":0.031266,"status":"passed"},"step":{"line":23,"prefix":"Then","index":3,"text":"status 200"}},{"result":{"nanos":2767163,"millis":2.767163,"status":"passed"},"step":{"line":24,"prefix":"And","index":4,"text":"def k = response.data[0]"}},{"result":{"nanos":1907431,"millis":1.907431,"status":"passed"},"step":{"line":25,"prefix":"And","index":5,"text":"print k"},"stepLog":"10:27:28.107 [print] {\n  \"id\": 4,\n  \"timestamp\": 1554240798496,\n  \"status\": \"RUNNING\",\n  \"operatingParams\": {\n    \"rotorSpeed\": 2967,\n    \"slack\": 37.32,\n    \"rootThreshold\": 0\n  },\n  \"asset\": {\n    \"id\": 2,\n    \"alias\": \"Main Rotor Shaft\"\n  }\n}\n \n"},{"result":{"nanos":785122,"millis":0.785122,"status":"passed"},"step":{"comments":["#   * def process = call read('.\/javascript.feature')"],"line":29,"prefix":"*","index":6,"text":"def key = 'operatingParams'"}},{"result":{"nanos":37357096,"errorMessage":"cannot convert to json: [type: NULL, value: null]\nclasspath:examples\/users\/users.feature:30","millis":37.357096,"status":"failed"},"step":{"line":30,"prefix":"*","index":7,"text":"json kari = call processJson k"},"stepLog":"10:27:28.147 classpath:examples\/users\/users.feature:30\n* json kari = call processJson k\ncannot convert to json: [type: NULL, value: null]\nclasspath:examples\/users\/users.feature:30\n"},{"result":{"nanos":0,"millis":0.0,"status":"skipped"},"step":{"line":31,"prefix":"*","index":8,"text":"print kari"}}],"line":4,"description":"","durationMillis":1752.336366,"failed":true,"error":"cannot convert to json: [type: NULL, value: null]\nclasspath:examples\/users\/users.feature:30","executorName":"pool-1-thread-2","name":"get data","startTime":1645216046218,"refId":"[1:4]","endTime":1645216048147,"exampleIndex":-1}],"callDepth":0,"name":"sample karate test script","description":"","resultDate":"2022-02-18 10:27:28 AM","durationMillis":1752.336366,"passedCount":0}