{"failedCount":0,"prefixedPath":"classpath:examples\/demo\/invokeJavascript.feature","packageQualifiedName":"examples.demo.invokeJavascript","loopIndex":-1,"relativePath":"examples\/demo\/invokeJavascript.feature","scenarioResults":[{"sectionIndex":0,"stepResults":[{"result":{"nanos":15473099,"millis":15.473099,"status":"passed"},"step":{"endLine":21,"line":6,"prefix":"*","docString":"function(jsonData){\n   let data = jsonData.jd;\n   let param = jsonData.p;\n   let arr = [];\n   for(let k =0;k<data.length;k++){\n     let obj = data[k];\nif(obj.hasOwnProperty(param)){\n arr.push(obj[param].rotorSpeed)\n}\n   }\n   return arr;\n}","index":0,"text":"def processJson ="},"stepLog":"12:02:12.516 karate.env system property was: null \n"},{"result":{"nanos":1052329,"millis":1.052329,"status":"passed"},"step":{"line":23,"prefix":"Given","index":1,"text":"url 'https:\/\/jsonmock.hackerrank.com\/api\/iot_devices\/search?status=RUNNING'"}},{"result":{"nanos":1682673886,"millis":1682.673886,"status":"passed"},"step":{"line":24,"prefix":"When","index":2,"text":"method get"},"stepLog":"12:02:12.764 request:\n1 > GET https:\/\/jsonmock.hackerrank.com\/api\/iot_devices\/search?status=RUNNING\n1 > Host: jsonmock.hackerrank.com\n1 > Connection: Keep-Alive\n1 > User-Agent: Apache-HttpClient\/4.5.13 (Java\/14)\n1 > Accept-Encoding: gzip,deflate\n\n\n12:02:14.190 response time in milliseconds: 1423\n1 < 200\n1 < Date: Fri, 18 Feb 2022 22:02:14 GMT\n1 < Content-Type: application\/json; charset=utf-8\n1 < Content-Length: 1809\n1 < Connection: keep-alive\n1 < X-Powered-By: Express\n1 < Access-Control-Allow-Origin: *\n1 < ETag: W\/\"711-USy0skmHxuKHl2gdjVKkpw\"\n{\"page\":1,\"per_page\":10,\"total\":35,\"total_pages\":4,\"data\":[{\"id\":4,\"timestamp\":1554240798496,\"status\":\"RUNNING\",\"operatingParams\":{\"rotorSpeed\":2967,\"slack\":37.32,\"rootThreshold\":0},\"asset\":{\"id\":2,\"alias\":\"Main Rotor Shaft\"}},{\"id\":11,\"timestamp\":1565193225660,\"status\":\"RUNNING\",\"operatingParams\":{\"rotorSpeed\":2363,\"slack\":63.07,\"rootThreshold\":0},\"asset\":{\"id\":4,\"alias\":\"Secondary Rotor\"},\"parent\":{\"id\":2,\"alias\":\"Main Rotor Shaft\"}},{\"id\":14,\"timestamp\":1566352838102,\"status\":\"RUNNING\",\"operatingParams\":{\"rotorSpeed\":1536,\"slack\":86.52,\"rootThreshold\":0},\"asset\":{\"id\":2,\"alias\":\"Main Rotor Shaft\"}},{\"id\":15,\"timestamp\":1565008649102,\"status\":\"RUNNING\",\"operatingParams\":{\"rotorSpeed\":4114,\"slack\":45.38,\"rootThreshold\":0},\"asset\":{\"id\":1,\"alias\":\"Axle Motor\"},\"parent\":null},{\"id\":19,\"timestamp\":1546917341408,\"status\":\"RUNNING\",\"operatingParams\":{\"rotorSpeed\":2673,\"slack\":16.3,\"rootThreshold\":0},\"asset\":{\"id\":2,\"alias\":\"Main Rotor Shaft\"}},{\"id\":23,\"timestamp\":1554478379196,\"status\":\"RUNNING\",\"operatingParams\":{\"rotorSpeed\":2319,\"slack\":91.81,\"rootThreshold\":0},\"asset\":{\"id\":1,\"alias\":\"Axle Motor\"},\"parent\":null},{\"id\":27,\"timestamp\":1565715044200,\"status\":\"RUNNING\",\"operatingParams\":{\"rotorSpeed\":2257,\"slack\":65.91,\"rootThreshold\":0},\"asset\":{\"id\":7,\"alias\":\"Counter Blades\"}},{\"id\":28,\"timestamp\":1563744781223,\"status\":\"RUNNING\",\"operatingParams\":{\"rotorSpeed\":4056,\"slack\":40.1,\"rootThreshold\":0},\"asset\":{\"id\":6,\"alias\":\"Penstock Guage\"}},{\"id\":29,\"timestamp\":1551346719679,\"status\":\"RUNNING\",\"operatingParams\":{\"rotorSpeed\":2679,\"slack\":58.29,\"rootThreshold\":0},\"asset\":{\"id\":7,\"alias\":\"Counter Blades\"}},{\"id\":40,\"timestamp\":1548040103302,\"status\":\"RUNNING\",\"operatingParams\":{\"rotorSpeed\":1807,\"slack\":34.12,\"rootThreshold\":0},\"asset\":{\"id\":1,\"alias\":\"Axle Motor\"},\"parent\":null}]}\n"},{"result":{"nanos":28115,"millis":0.028115,"status":"passed"},"step":{"line":25,"prefix":"Then","index":3,"text":"status 200"}},{"result":{"nanos":9165493,"millis":9.165493,"status":"passed"},"step":{"line":26,"prefix":"And","index":4,"text":"def k = response.data"}},{"result":{"nanos":1189694,"millis":1.189694,"status":"passed"},"step":{"line":28,"prefix":"*","index":5,"text":"def key = 'operatingParams'"}},{"result":{"nanos":41234576,"millis":41.234576,"status":"passed"},"step":{"line":29,"prefix":"*","index":6,"text":"json kari = call processJson {jd:'#(k)',p:'#(key)'}"}},{"result":{"nanos":1745920,"millis":1.74592,"status":"passed"},"step":{"line":30,"prefix":"*","index":7,"text":"print kari"},"stepLog":"12:02:14.296 [print] [\n  2967,\n  2363,\n  1536,\n  4114,\n  2673,\n  2319,\n  2257,\n  4056,\n  2679,\n  1807\n]\n \n"}],"executorName":"pool-1-thread-1","line":4,"name":"Process JSON using JavaScript","description":"","durationMillis":1752.563112,"startTime":1645221732385,"failed":false,"refId":"[1:4]","endTime":1645221734297,"exampleIndex":-1}],"callDepth":0,"name":"sample karate test script","description":"","resultDate":"2022-02-18 12:02:14 PM","durationMillis":1752.563112,"passedCount":1}