{"failedCount":0,"prefixedPath":"classpath:examples\/users\/users.feature","packageQualifiedName":"examples.users.users","loopIndex":-1,"relativePath":"examples\/users\/users.feature","scenarioResults":[{"sectionIndex":0,"stepResults":[{"result":{"nanos":14757881,"millis":14.757881,"status":"passed"},"step":{"endLine":23,"line":6,"prefix":"*","docString":"function(jsonData){\n   let data = jsonData.jd;\n   let param = jsonData.p;\nconsole.log(data +' data');\nconsole.log(param +' param');\n   for(let k =0;k<data.length;k++){\n     let obj = data[k];\nif(obj.hasOwnProperty(param)){\nconsole.log(obj[param].rotorSpeed);\n  \n}\n   }\n   return jsonData;\n}","index":0,"text":"def processJson ="},"stepLog":"11:02:40.890 karate.env system property was: null \n"},{"result":{"nanos":661991,"millis":0.661991,"status":"passed"},"step":{"line":25,"prefix":"Given","index":1,"text":"url 'https:\/\/jsonmock.hackerrank.com\/api\/iot_devices\/search?status=RUNNING'"}},{"result":{"nanos":1433599106,"millis":1433.599106,"status":"passed"},"step":{"line":26,"prefix":"When","index":2,"text":"method get"},"stepLog":"11:02:41.196 request:\n1 > GET https:\/\/jsonmock.hackerrank.com\/api\/iot_devices\/search?status=RUNNING\n1 > Host: jsonmock.hackerrank.com\n1 > Connection: Keep-Alive\n1 > User-Agent: Apache-HttpClient\/4.5.13 (Java\/14)\n1 > Accept-Encoding: gzip,deflate\n\n\n11:02:42.365 response time in milliseconds: 1167\n1 < 200\n1 < Date: Fri, 18 Feb 2022 21:02:42 GMT\n1 < Content-Type: application\/json; charset=utf-8\n1 < Content-Length: 1809\n1 < Connection: keep-alive\n1 < X-Powered-By: Express\n1 < Access-Control-Allow-Origin: *\n1 < ETag: W\/\"711-USy0skmHxuKHl2gdjVKkpw\"\n{\"page\":1,\"per_page\":10,\"total\":35,\"total_pages\":4,\"data\":[{\"id\":4,\"timestamp\":1554240798496,\"status\":\"RUNNING\",\"operatingParams\":{\"rotorSpeed\":2967,\"slack\":37.32,\"rootThreshold\":0},\"asset\":{\"id\":2,\"alias\":\"Main Rotor Shaft\"}},{\"id\":11,\"timestamp\":1565193225660,\"status\":\"RUNNING\",\"operatingParams\":{\"rotorSpeed\":2363,\"slack\":63.07,\"rootThreshold\":0},\"asset\":{\"id\":4,\"alias\":\"Secondary Rotor\"},\"parent\":{\"id\":2,\"alias\":\"Main Rotor Shaft\"}},{\"id\":14,\"timestamp\":1566352838102,\"status\":\"RUNNING\",\"operatingParams\":{\"rotorSpeed\":1536,\"slack\":86.52,\"rootThreshold\":0},\"asset\":{\"id\":2,\"alias\":\"Main Rotor Shaft\"}},{\"id\":15,\"timestamp\":1565008649102,\"status\":\"RUNNING\",\"operatingParams\":{\"rotorSpeed\":4114,\"slack\":45.38,\"rootThreshold\":0},\"asset\":{\"id\":1,\"alias\":\"Axle Motor\"},\"parent\":null},{\"id\":19,\"timestamp\":1546917341408,\"status\":\"RUNNING\",\"operatingParams\":{\"rotorSpeed\":2673,\"slack\":16.3,\"rootThreshold\":0},\"asset\":{\"id\":2,\"alias\":\"Main Rotor Shaft\"}},{\"id\":23,\"timestamp\":1554478379196,\"status\":\"RUNNING\",\"operatingParams\":{\"rotorSpeed\":2319,\"slack\":91.81,\"rootThreshold\":0},\"asset\":{\"id\":1,\"alias\":\"Axle Motor\"},\"parent\":null},{\"id\":27,\"timestamp\":1565715044200,\"status\":\"RUNNING\",\"operatingParams\":{\"rotorSpeed\":2257,\"slack\":65.91,\"rootThreshold\":0},\"asset\":{\"id\":7,\"alias\":\"Counter Blades\"}},{\"id\":28,\"timestamp\":1563744781223,\"status\":\"RUNNING\",\"operatingParams\":{\"rotorSpeed\":4056,\"slack\":40.1,\"rootThreshold\":0},\"asset\":{\"id\":6,\"alias\":\"Penstock Guage\"}},{\"id\":29,\"timestamp\":1551346719679,\"status\":\"RUNNING\",\"operatingParams\":{\"rotorSpeed\":2679,\"slack\":58.29,\"rootThreshold\":0},\"asset\":{\"id\":7,\"alias\":\"Counter Blades\"}},{\"id\":40,\"timestamp\":1548040103302,\"status\":\"RUNNING\",\"operatingParams\":{\"rotorSpeed\":1807,\"slack\":34.12,\"rootThreshold\":0},\"asset\":{\"id\":1,\"alias\":\"Axle Motor\"},\"parent\":null}]}\n"},{"result":{"nanos":34953,"millis":0.034953,"status":"passed"},"step":{"line":27,"prefix":"Then","index":3,"text":"status 200"}},{"result":{"nanos":2030553,"millis":2.030553,"status":"passed"},"step":{"line":28,"prefix":"And","index":4,"text":"def k = response.data"}},{"result":{"nanos":1211053,"millis":1.211053,"status":"passed"},"step":{"comments":["# And print k","#   * def process = call read('.\/javascript.feature')"],"line":33,"prefix":"*","index":5,"text":"def key = 'operatingParams'"}},{"result":{"nanos":66973036,"millis":66.973036,"status":"passed"},"step":{"line":34,"prefix":"*","index":6,"text":"json kari = call processJson {jd:'#(k)',p:'#(key)'}"}},{"result":{"nanos":2063319,"millis":2.063319,"status":"passed"},"step":{"line":35,"prefix":"*","index":7,"text":"print kari.rotorSpeed"},"stepLog":"11:02:42.445 [print] null \n"}],"executorName":"pool-1-thread-2","line":4,"name":"get data","description":"","durationMillis":1521.331892,"startTime":1645218160735,"failed":false,"refId":"[1:4]","endTime":1645218162446,"exampleIndex":-1}],"callDepth":0,"name":"sample karate test script","description":"","resultDate":"2022-02-18 11:02:42 AM","durationMillis":1521.331892,"passedCount":1}